pymongo==3.10.1
requests==2.24.0
pytz==2020.1
wikipedia==1.4.0
bs4==0.0.1
markdown-to-json==1.0.0
geographiclib==1.50
geopy==1.22.0
redis==3.4.1
requests-async==0.6.2
requests-oauthlib==1.3.0
requests-toolbelt==0.9.1
typing-extensions==3.7.4.1